<svg xmlns="http://www.w3.org/2000/svg" width="24" height="24" viewBox="0 0 24 24">
    <path fill="#C2C2C2" fill-rule="nonzero" d="M11.933 0c3.24 0 3.647.014 4.92.073.99.02 1.969.206 2.896.553.796.3 1.517.77 2.113 1.377a5.85 5.85 0 0 1 1.377 2.114c.347.927.534 1.906.554 2.896.059 1.273.073 1.68.073 4.92s-.014 3.647-.073 4.92c-.02.99-.207 1.969-.554 2.896a6.102 6.102 0 0 1-3.49 3.49 8.746 8.746 0 0 1-2.896.554c-1.273.059-1.68.073-4.92.073s-3.647-.014-4.92-.073a8.746 8.746 0 0 1-2.896-.554 5.85 5.85 0 0 1-2.114-1.377A5.85 5.85 0 0 1 .626 19.75a8.746 8.746 0 0 1-.553-2.896C.014 15.58 0 15.173 0 11.933s.014-3.647.073-4.92c.02-.99.206-1.97.553-2.896a5.85 5.85 0 0 1 1.377-2.114A5.85 5.85 0 0 1 4.117.626 8.746 8.746 0 0 1 7.013.073C8.286.014 8.693 0 11.933 0zm7.408 7.392a5.954 5.954 0 0 1-1.705.466 2.968 2.968 0 0 0 1.304-1.642 5.947 5.947 0 0 1-1.884.72 2.969 2.969 0 0 0-5.057 2.706 8.42 8.42 0 0 1-6.116-3.1 2.963 2.963 0 0 0 .92 3.96 2.96 2.96 0 0 1-1.345-.371v.036a2.969 2.969 0 0 0 2.38 2.91 3.006 3.006 0 0 1-1.34.05 2.971 2.971 0 0 0 2.771 2.06 5.952 5.952 0 0 1-4.394 1.23 8.398 8.398 0 0 0 4.55 1.334c5.457 0 8.442-4.521 8.442-8.443 0-.129-.002-.256-.008-.384a6.002 6.002 0 0 0 1.48-1.536l.002.004z"/>
</svg>
